Canadian homicide rates
…
I can also summarise by combinations of variables:

sdat3 %>% group_by(year,Region) %>%
    summarise(across(homicides,mean),.groups="drop")

## # A tibble: 25 x 3
##     year Region   homicides
##  * <dbl> <chr>        <dbl>
##  1  2007 all          1.8  
##  2  2007 Atlantic     0.762
##  3  2007 East         1.38 
##  4  2007 North       11.0  
##  5  2007 West         3.16 
##  6  2008 all          1.83 
##  7  2008 Atlantic     1.02 
##  8  2008 East         1.27 
##  9  2008 North        9.53 
## 10  2008 West         3.29 
## #  with 15 more rows
…
