Clean and tidy data
…
List

Make lists of what occurs with what (and how many times)

print(villageTable
    %>% group_by(vname, vu)
    %>% summarize(count = n())
)

## Source: local data frame [180 x 3]
## Groups: vname [?]
## 
##              vname     vu count
##             <fctr> <fctr> <int>
## 1   Adinis Fulanin    Kar     1
## 2            Aduwa    Aju     1
## 3            Ajura    Aju     1
## 4             Anju    Dok     1
## 5           Arindi    Sug     1
## 6          Asayaya    Kit     1
## 7            Ba'wa    Dok     1
## 8     Bakan Sabara    Kar     1
## 9  Bakan Sabara II    Kar     1
## 10       Balalashi    Dok     1
## # ... with 170 more rows
…
