Clean and tidy data
…
List

Make lists of what occurs with what (and how many times)

print(villageTable
    %>% group_by(vname, vu)
    %>% summarize(count = n())
)

## Source: local data frame [180 x 3]
## Groups: vname [?]
## 
##              vname     vu count
##             <fctr> <fctr> <int>
## 1   Adinis Fulanin    Kar     1
## 2            Aduwa    Aju     1
## 3            Ajura    Aju     1
## 4             Anju    Dok     1
## 5           Arindi    Sug     1
## 6          Asayaya    Kit     1
## 7            Ba'wa    Dok     1
## 8     Bakan Sabara    Kar     1
## 9  Bakan Sabara II    Kar     1
## 10       Balalashi    Dok     1
## # ... with 170 more rows
…
A table at the level of sampling events

A table at the level of measurements

This process leads to improved clarity, and improved cleaning

Parasite table

print(parasiteTable
    %>% group_by(id, village, compound)
    %>% summarize(count=n())
)

## Source: local data frame [13,656 x 4]
## Groups: id, village [?]
## 
##       id village compound count
##    <int>   <int>    <int> <int>
## 1      1     801      401    16
## 2      2     801      401    16
## 3      3     801      401    16
## 4      4     801      401    16
## 5      5     801      401    16
## 6      6     801      401    16
## 7      7     801      401    12
## 8      8     801      401    11
## 9      9     801      401    15
## 10     9     801      417     1
## # ... with 13,646 more rows
…
